"Trans","Trans Ver","IIS Number","ISS Date","Printed By","Source Dir #","Source Dir Version","To","From","Dir #","Dir Ver","State","Dir Name","Pub Date","Life","CMR #","Clinet #","NAT","Client Name","NAT Client ID","PG#","Line #","UDAC","BAS","SPINS","Gross Amnt","Code","ADJ Amnt","Advertising Data" 
"C","V0001","092021121300213909","2013-09-20 00:00:00","Pubco 3","103360","London Area, KY 1509","P","C","103360","London Area, KY 1509","KY","London Area, KY","2015-09-01 00:00:00","12","2112","3457","null","Cardinals","null","","500","DHC","","","500","","0","American Family"
"C","V0001","092021121300213909","2013-09-20 00:00:00","Pubco 3","103360","London Area, KY 1509","P","C","103360","null","KY","London Area, KY","null","12","2112","3457","null","Cardinals","null","","501","","B","Y","0","","0","671 MERRIMAN"
"C","V0001","092021121300213909","2013-09-20 00:00:00","Pubco 3","103360","London Area, KY 1509","P","C","103360","null","KY","London Area, KY","null","12","2112","3457","null","Cardinals","null","","502","","B","Y","0","","0","MERRIMAN TERMINAL"
