"Trans","Trans Ver","IIS Number","ISS Date","Printed By","Source Dir #","Source Dir Version","To","From","Dir #","Dir Ver","State","Dir Name","Pub Date","Life","CMR #","Clinet #","NAT","Client Name","NAT Client ID","PG#","Line #","UDAC","BAS","SPINS","Gross Amnt","Code","ADJ Amnt","Advertising Data" 
"C","V0005","092019991300231909","2013-09-20 00:00:00","Pubco 3","032663","Armstrong-Rising Sun, MD 1311","P","C","032663","Armstrong-Rising Sun, MD 1311","MD","Armstrong-Rising Sun, MD","null","12","1999","3457","null","Cardinals","null","","12","DHC","","","400","","0","American  Insurance"
"C","V0005","092019991300231909","2013-09-20 00:00:00","Pubco 3","032663","Armstrong-Rising Sun, MD 1311","P","C","032663","null","MD","Armstrong-Rising Sun, MD","null","12","1999","3457","null","Cardinals","null","","11","","B","Y","0","","0","1234567890"
"C","V0005","092019991300231909","2013-09-20 00:00:00","Pubco 3","032663","Armstrong-Rising Sun, MD 1311","P","C","032663","Armstrong-Rising Sun, MD 1311","MD","Armstrong-Rising Sun, MD","null","12","1999","3457","null","Cardinals","null","","10","DHC","","","500","","0","American Family Insur"
"C","V0005","092019991300231909","2013-09-20 00:00:00","Pubco 3","032663","Armstrong-Rising Sun, MD 1311","P","C","032663","null","MD","Armstrong-Rising Sun, MD","null","12","1999","3457","null","Cardinals","null","","11","","B","Y","0","","0","1234567890"
"C","V0007","092019991300231909","2013-09-20 00:00:00","Pubco 3","032663","Armstrong-Rising Sun, MD 1311","P","C","032663","Armstrong-Rising Sun, MD 1311","MD","Armstrong-Rising Sun, MD","null","12","1999","3457","null","Cardinals","null","","10","DHC","","","200","","0","Family"
"C","V0007","092019991300231909","2013-09-20 00:00:00","Pubco 3","032663","Armstrong-Rising Sun, MD 1311","P","C","032663","null","MD","Armstrong-Rising Sun, MD","null","12","1999","3457","null","Cardinals","null","","11","","B","Y","0","","0","1234567890"
"C","V0007","092019991300231909","2013-09-20 00:00:00","Pubco 3","032663","Armstrong-Rising Sun, MD 1311","P","C","032663","null","MD","Armstrong-Rising Sun, MD","null","12","1999","3457","null","Cardinals","null","","11","","B","Y","0","","0","1234567890"
"C","V0007","092019991300231909","2013-09-20 00:00:00","Pubco 3","032663","Armstrong-Rising Sun, MD 1311","P","C","032663","null","MD","Armstrong-Rising Sun, MD","null","12","1999","3457","null","Cardinals","null","","11","","B","Y","0","","0","1234567890"
"C","V0007","092019991300231909","2013-09-20 00:00:00","Pubco 3","032663","Armstrong-Rising Sun, MD 1311","P","C","032663","null","MD","Armstrong-Rising Sun, MD","null","12","1999","3457","null","Cardinals","null","","11","","B","Y","0","","0","1234567890"
"C","V0007","092019991300231909","2013-09-20 00:00:00","Pubco 3","032663","Armstrong-Rising Sun, MD 1311","P","C","032663","null","MD","Armstrong-Rising Sun, MD","null","12","1999","3457","null","Cardinals","null","","11","","B","Y","0","","0","1234567890"
"C","V0007","092019991300231909","2013-09-20 00:00:00","Pubco 3","032663","Armstrong-Rising Sun, MD 1311","P","C","032663","Armstrong-Rising Sun, MD 1311","MD","Armstrong-Rising Sun, MD","null","12","1999","3457","null","Cardinals","null","","10","DHC","","","200","","0","Family"
"C","V0007","092019991300231909","2013-09-20 00:00:00","Pubco 3","032663","Armstrong-Rising Sun, MD 1311","P","C","032663","null","MD","Armstrong-Rising Sun, MD","null","12","1999","3457","null","Cardinals","null","","11","","B","Y","0","","0","1234567890"
"C","V0005","092019991300231909","2013-09-20 00:00:00","Pubco 3","032663","Armstrong-Rising Sun, MD 1311","P","C","032663","Armstrong-Rising Sun, MD 1311","MD","Armstrong-Rising Sun, MD","null","12","1999","3457","null","Cardinals","null","","10","DHC","","","200","","0","Family Insur"
"C","V0005","092019991300231909","2013-09-20 00:00:00","Pubco 3","032663","Armstrong-Rising Sun, MD 1311","P","C","032663","null","MD","Armstrong-Rising Sun, MD","null","12","1999","3457","null","Cardinals","null","","11","","B","Y","0","","0","1234567890"
"C","V0007","092019991300231909","2013-09-20 00:00:00","Pubco 3","032663","Armstrong-Rising Sun, MD 1311","P","C","032663","Armstrong-Rising Sun, MD 1311","MD","Armstrong-Rising Sun, MD","null","12","1999","3457","null","Cardinals","null","","10","DHC","","","200","","0","Family"
"C","V0007","092019991300231909","2013-09-20 00:00:00","Pubco 3","032663","Armstrong-Rising Sun, MD 1311","P","C","032663","null","MD","Armstrong-Rising Sun, MD","null","12","1999","3457","null","Cardinals","null","","11","","B","Y","0","","0","1234567890"
