<?xml version="1.0" encoding="UTF-8"?>
<CustomTab xmlns="http://soap.sforce.com/2006/04/metadata">
    <label>Billing Manager</label>
    <mobileReady>false</mobileReady>
    <motif>Custom41: Stack of Cash</motif>
    <page>PortalBalancePay</page>
</CustomTab>
