<?xml version="1.0" encoding="UTF-8"?>
<CustomTab xmlns="http://soap.sforce.com/2006/04/metadata">
    <label>Billing Reconciliation New</label>
    <mobileReady>false</mobileReady>
    <motif>Custom26: Flag</motif>
    <page>LocalBilling</page>
</CustomTab>
