<?xml version="1.0" encoding="UTF-8"?>
<CustomTab xmlns="http://soap.sforce.com/2006/04/metadata">
    <label>Contact Us</label>
    <mobileReady>false</mobileReady>
    <motif>Custom64: Compass</motif>
    <page>ContactUs</page>
</CustomTab>
