<?xml version="1.0" encoding="UTF-8"?>
<CustomTab xmlns="http://soap.sforce.com/2006/04/metadata">
    <customObject>true</customObject>
    <description>Stores the individual edition of a Directory. BOTS, BOTS-1, NI.</description>
    <mobileReady>false</mobileReady>
    <motif>Custom55: Books</motif>
</CustomTab>
