<?xml version="1.0" encoding="UTF-8"?>
<CustomTab xmlns="http://soap.sforce.com/2006/04/metadata">
    <label>Governor Limits</label>
    <mobileReady>false</mobileReady>
    <motif>Custom82: Whistle</motif>
    <page>Governor_Limits</page>
</CustomTab>
