<?xml version="1.0" encoding="UTF-8"?>
<CustomTab xmlns="http://soap.sforce.com/2006/04/metadata">
    <frameHeight>600</frameHeight>
    <hasSidebar>false</hasSidebar>
    <label>Tasks</label>
    <mobileReady>false</mobileReady>
    <motif>Custom83: Pencil</motif>
    <url>/00T?isdtp=vw</url>
    <urlEncodingKey>UTF-8</urlEncodingKey>
</CustomTab>
