<?xml version="1.0" encoding="UTF-8"?>
<CustomTab xmlns="http://soap.sforce.com/2006/04/metadata">
    <label>Telco Reversals</label>
    <mobileReady>false</mobileReady>
    <motif>Custom63: Chip</motif>
    <page>ffps_bmatching__CreateAndPostDocuments</page>
</CustomTab>
